[
  {
    "description": "Sistema operativo VM-compatibile basato su Debian e Tor incentrato sull’anonimato, privacy e sicurezza.",
    "notes": "Whonix è progettato per essere eseguito all’interno di un pacchetto di virtualizzazione come [VirtualBox](https://www.virtualbox.org/). VirtualBox può essere installato su Windows, Linux, macOS e Solaris. Quindi se sarai obbligato ad usare Windows o macOS per qualsiasi ragione, potrai installare VirtualBox e usare Whonix per aumentare la tua privacy e sicurezza."
  },
  {
    "description": "OMEMO or OTR encrypted IM for iOS.",
    "slug": "chatsecure",
    "url": "https://chatsecure.org/",
    "wikipedia_url": "https://en.wikipedia.org/wiki/The_Guardian_Project_(software)#ChatSecure"
  },
  {
    "description": "Cjdns è un protocollo di rete, un sistema di regole digitali per scambio di messaggi tra computer. “Invece di permettere agli altri computer di connettersi a te tramite un indirizzo IP che tutti possono usare, cjdns permette ai computer di comunicare solo dopo aver verificato l’un l’altro in modo criptato. ",
    "slug": "cjdns",
    "url": "https://github.com/cjdelisle/cjdns",
    "wikipedia_url": "https://en.wikipedia.org/wiki/Cjdns"
  },
  {
    "description": "Conversations is an open source XMPP/Jabber client for Android 4.0+ smart phones.",
    "slug": "conversations",
    "url": "https://github.com/siacs/Conversations",
    "wikipedia_url": ""
  },
  {
    "description": "Self-hosted, zero-knowledge, real-time collaborative documents.",
    "notes": "Encryption carried out in your web browser protects the data from the server, the cloud, and the NSA. The secret encryption key is stored in the URL fragment identifier which is never sent to the server but is available to javascript, so by sharing the URL, you give authorization to others who want to participate. Users must still take care to share links over an end-to-end-encrypted medium for best effect.",
    "slug": "cryptpad",
    "url": "https://cryptpad.fr",
    "wikipedia_url": ""
  },
  {
    "description": "Distribuzione GNU/Linux famosa per il suo contratto sociale.",
    "slug": "debian",
    "url": "http://debian.org",
    "wikipedia_url": "https://it.wikipedia.org/wiki/Debian"
  },
  {
    "description": "Protegge dal tracciamento tramite CDN centralizzato “gratis”. Impedisce a molte richieste di raggiungere reti come Google Hosted Libraries e fornisce file locali per impedire malfunzionamenti dei siti. È complementare ai normali content blockers.",
    "notes": "- Protegge la privacy eludendo le grandi CDN che pretendono di offrire servizi gratuiti.\n- Integra i normali bloccanti come uBlock Origin, Privacy Badger, e altri.\n- Direttamente pronto all'uso; non è assolutamente richiesta alcuna configurazione iniziale.\n\nDecentraleyes non è una soluzione miracolosa, ma impedisce ad un sacco di siti Web di inviare questi tipi di richieste. In definitiva, si possono anche bloccare tramite Decentraleyes le richieste per le risorse CDN mancanti.",
    "slug": "decentraleyes",
    "url": "https://decentraleyes.org",
    "wikipedia_url": ""
  },
  {
    "description": "Social network distribuito e comunitario.",
    "slug": "diaspora",
    "url": "https://diasporafoundation.org/",
    "wikipedia_url": "https://it.wikipedia.org/wiki/Diaspora_%28software%29"
  },
  {
    "description": "Strumento per proteggere le comunicazioni tra client e resolver DNS.",
    "slug": "dnscrypt",
    "url": "https://dnscrypt.info",
    "wikipedia_url": ""
  },
  {
    "description": "Ricerche anonime e non registrate.",
    "notes": "DuckDuckGo è un software-as-a-service (SaaS) con server in varie parti del mondo che ti fornisce risultati di ricerca anonimi da [queste fonti](https://help.duckduckgo.com/results/sources). I componenti open source di DDG sono [disponibili qui](https://github.com/duckduckgo).\n\nEgrave; disponibile anche un servizio nascosto di DuckDuckGo all’indirizzo [3g2upl4pq6kufc4m.onion](http://3g2upl4pq6kufc4m.onion) per gli utenti Tor.",
    "slug": "duckduckgo",
    "url": "https://duckduckgo.com/",
    "wikipedia_url": "https://it.wikipedia.org/wiki/DuckDuckGo"
  },
  {
    "description": "Server per fogli di calcolo multi-utente.",
    "notes": "The EtherCalc online service encrypts your data transmission with HTTPS, but data may be read by anyone who can guess the URL. Download and run your own EtherCalc server if you care about privacy.",
    "slug": "ethercalc",
    "url": "http://ethercalc.net/",
    "wikipedia_url": ""
  },
  {
    "description": "Alternativa libera e open source allo store Google Play per Android.",
    "slug": "f-droid",
    "url": "https://f-droid.org/",
    "wikipedia_url": "https://en.wikipedia.org/wiki/F-Droid"
  },
  {
    "description": "Distribuzione GNU/Linux veloce, stabile e potente.",
    "slug": "fedora",
    "url": "https://fedoraproject.org/",
    "wikipedia_url": "https://it.wikipedia.org/wiki/Fedora_%28informatica%29"
  },
  {
    "description": "Un sistema operativo libero derivato da BSD.",
    "slug": "freebsd",
    "url": "https://www.freebsd.org/",
    "wikipedia_url": "https://it.wikipedia.org/wiki/FreeBSD"
  },
  {
    "description": "FreedomBox integra protezioni per la privacy per server personali basati su software libero.",
    "slug": "freedombox",
    "url": "https://www.freedomboxfoundation.org/",
    "wikipedia_url": "https://it.wikipedia.org/wiki/FreedomBox"
  },
  {
    "description": "Un’iniziativa non commerciale di origine popolare per supportare reti radio libere in tutto il mondo.",
    "slug": "freifunk",
    "url": "http://wiki.freifunk.net/Kategorie:English",
    "wikipedia_url": "https://it.wikipedia.org/wiki/Freifunk"
  },
  {
    "description": "Software per social network libero, open source e distribuito.",
    "slug": "friendica",
    "url": "http://friendica.com/",
    "wikipedia_url": "https://it.wikipedia.org/wiki/Friendica"
  },
  {
    "description": "Sincronizza le cartelle su tutti i tuoi computer.",
    "slug": "git-annex",
    "url": "https://git-annex.branchable.com/",
    "wikipedia_url": ""
  },
  {
    "description": "Self hosted git server.",
    "slug": "gitlab",
    "url": "https://about.gitlab.com/",
    "wikipedia_url": "https://en.wikipedia.org/wiki/GitLab"
  },
  {
    "description": "Reti wireless aperte, libere e neutrali per tutti.",
    "slug": "guifinet",
    "url": "https://guifi.net/",
    "wikipedia_url": "https://en.wikipedia.org/wiki/Guifi.net"
  },
  {
    "description": "Cripta le tue comunicazioni con molti siti internet forzando una connessione HTTPS.",
    "slug": "https-everywhere",
    "url": "https://www.eff.org/https-everywhere",
    "wikipedia_url": "https://en.wikipedia.org/wiki/HTTPS_Everywhere"
  },
  {
    "description": "Hubzilla is a powerful platform for creating interconnected websites (hubs) featuring a decentralized identity, communications, and permissions framework built using common webserver technology.",
    "slug": "hubzilla",
    "url": "http://hubzilla.org/",
    "wikipedia_url": ""
  },
  {
    "description": "Progetto Internet Invisibile.",
    "slug": "i2p",
    "url": "https://geti2p.net/",
    "wikipedia_url": "https://it.wikipedia.org/wiki/I2P"
  },
  {
    "description": "Applicazione email per dispositivi Android con supporto PGP integrato.",
    "slug": "k-9-mail",
    "url": "https://github.com/k9mail/k-9",
    "wikipedia_url": "https://en.wikipedia.org/wiki/K-9_Mail"
  },
  {
    "description": "Application for people with extremely high demands on secure personal data management. Saves many different types of information such as usernames, passwords, urls, attachments and comments in one single database.",
    "slug": "keepassxc",
    "url": "https://keepassxc.org/",
    "wikipedia_url": "https://en.wikipedia.org/wiki/KeePassXC"
  },
  {
    "description": "Strumento di cifratura OpenPGP per webmail.",
    "slug": "mailvelope",
    "url": "http://www.mailvelope.com/",
    "wikipedia_url": ""
  },
  {
    "description": "Monero is a secure, private, untraceable P2P currency.",
    "notes": "Please note that new, digital currencies may be volatile. Complete loss of your investment is possible for a number of reasons (software errors or attacks, identity theft, etc.). Be prepared!",
    "slug": "monero",
    "url": "https://getmonero.org",
    "wikipedia_url": "https://en.wikipedia.org/wiki/Monero_(cryptocurrency)"
  },
  {
    "description": "Server per social network privato e decentralizzato.",
    "slug": "movim",
    "url": "https://movim.eu/",
    "wikipedia_url": "https://en.wikipedia.org/wiki/Movim"
  },
  {
    "description": "Browser web veloce, flessibile e sicuro con un vivace ecosistema di componenti aggiuntivi.",
    "notes": "Firefox non nasconde il tuo indirizzo IP a terze parti in modo predefinito. Se vuoi nasconderlo, dovresti usare Tor Browser Bundle.\n\nIl motore di ricerca predefinito di Firefox è Google. Si consiglia di cambiarlo con DuckDuckGo o Startpage per effettuare ricerche anonime.\n\nConsidering unchecking “Block reported attack sites” and “Block reported web forgeries” in Tools -> Options -> Security (Windows & GNU/Linux) or Preferences -> Security (macOS) if you don’t want Mozilla to send reported URL hashes to Google.",
    "slug": "mozilla-firefox",
    "wikipedia_url": "https://it.wikipedia.org/wiki/Mozilla_Firefox"
  },
  {
    "description": "Applicazione per email multipiattaforma con supporto alla cifratura tramite il componente aggiuntivo Enigmail.",
    "notes": "Thunderbird non cifra le email in modo predefinito. [Qui si trova una guida](https://securityinabox.org/en/guide/thunderbird/linux/) di Security In A Box per cifrare le tue email con Mozilla Thunderbird, GNU Privacy Guard (GPG) ed Enigmail.\n\nThunderbird può anche connettersi a Tor con l’addon TorBirdy.\n\nSebbene Thunderbird possa essere usato anche come client di chat e IRC, non permette la cifratura dei messaggi.",
    "slug": "mozilla-thunderbird",
    "url": "https://www.mozilla.org/it/thunderbird/",
    "wikipedia_url": "https://it.wikipedia.org/wiki/Mozilla_Thunderbird"
  },
  {
    "description": "Chat vocale cifrata multiutente e a bassa latenza.",
    "slug": "mumble",
    "url": "http://www.mumble.info/",
    "wikipedia_url": "https://it.wikipedia.org/wiki/Mumble"
  },
  {
    "description": "Sistema DNS distribuito per i domini di primo livello .bit, basato sulla tecnologia Bitcoin.",
    "slug": "namecoin",
    "url": "https://namecoin.org",
    "wikipedia_url": "https://en.wikipedia.org/wiki/Namecoin"
  },
  {
    "description": "Abilita JavaScript, Java e Flash solo per i siti fidati.",
    "notes": "Installa **NoScript** e attiva ‘Disabilita gli script globalmente’ per incrementare la sicurezza del tuo browser prevenendo gli attacchi 0-day in JavaScript. Questa è un’opzione drastica dato che molti siti non saranno mostrati correttamente visto che dipendono molto da JavaScript.\n\nNoScript offre una lista fidata che puoi usare per abilitare JavaScript specificamente per i siti di cui ti fidi, ma ciò è considerato [controproducente per la tua anonimitè](https://www.torproject.org/docs/faq.html.en#TBBJavaScriptEnabled) se usi NoScript con il **Tor Browser Bundle**.",
    "slug": "noscript",
    "url": "http://noscript.net/",
    "wikipedia_url": "https://en.wikipedia.org/wiki/NoScript"
  },
  {
    "description": "A free dynamic DNS service. Use it to update an easy DNS name with your changing/hard-to-remember IP address. As we use the standard protocols, we support a lot of routers / update clients and we even actively help you to configure them. We care for your security, privacy and comfort. You can simply use the free service available on our homepage or, if you prefer, you can also run the software on your own server.",
    "slug": "nsupdate-info",
    "url": "https://nsupdate.info/",
    "wikipedia_url": "https://en.wikipedia.org/wiki/Nsupdate"
  },
  {
    "description": "Naviga in internet attraverso la rete Tor con questo browser open source per iOS.",
    "slug": "onion-browser",
    "url": "https://mike.tig.as/onionbrowser/",
    "wikipedia_url": ""
  },
  {
    "description": "OpenKeychain è un’implementazione OpenPGP per Android.",
    "slug": "open-keychain",
    "url": "https://www.openkeychain.org/",
    "wikipedia_url": ""
  },
  {
    "description": "Un sistema operativo BSD sicuro.",
    "slug": "openbsd",
    "url": "http://openbsd.org/",
    "wikipedia_url": "https://it.wikipedia.org/wiki/OpenBSD"
  },
  {
    "description": "Mappa mondiale collaborativa e libera.",
    "slug": "openstreetmap",
    "url": "http://www.openstreetmap.org/",
    "wikipedia_url": "https://it.wikipedia.org/wiki/OpenStreetMap"
  },
  {
    "description": "A GNU/Linux distribution for embedded devices.",
    "slug": "openwrt",
    "url": "https://openwrt.org/",
    "wikipedia_url": "https://en.wikipedia.org/wiki/OpenWrt"
  },
  {
    "description": "Tutte le caratteristiche e funzionalitè di Tor per Android.",
    "slug": "orbot",
    "url": "https://guardianproject.info/apps/orbot/",
    "wikipedia_url": "https://en.wikipedia.org/wiki/Orbot"
  },
  {
    "description": "OsmAnd (OSM Automated Navigation Directions) è un’applicazione per mappe e navigazione che usa i dati di OpenStreetMap.",
    "slug": "osmand",
    "url": "http://osmand.net/",
    "wikipedia_url": "https://it.wikipedia.org/wiki/OsmAnd"
  },
  {
    "description": "Tracking blocker that tries to learn who is spying on you and then blocks these ads and invisible trackers.",
    "notes": "Privacy Badger may be less effective than a classic blacklist based solution such as uBlock or Disconnect. Advertisers can automatically unblock themselves by claiming not to track you.",
    "slug": "privacy-badger",
    "url": "https://www.eff.org/privacybadger",
    "wikipedia_url": "https://en.wikipedia.org/wiki/Privacy_Badger"
  },
  {
    "description": "Client di messaggistica istantanea per utenti avanzati con supporto OTR integrato.",
    "slug": "psi",
    "url": "http://psi-plus.com/",
    "wikipedia_url": "https://it.wikipedia.org/wiki/Psi_%28software%29"
  },
  {
    "description": "Server di streaming sociale self-hosted.",
    "slug": "pumpio",
    "url": "http://pump.io/",
    "wikipedia_url": "https://en.wikipedia.org/wiki/Pump.io"
  },
  {
    "description": "Sistema operativo basato su Fedora/Xen progettato per offrire un’elevato livello di sicurezza grazie all’isolamento.",
    "slug": "qubes",
    "url": "https://www.qubes-os.org/",
    "wikipedia_url": "https://en.wikipedia.org/wiki/Qubes_OS"
  },
  {
    "description": "Piattaforma di comunicazione P2P sicura per chat, forum, VoIP, condivisione di file e altro.",
    "notes": "Da notare che RetroShare non è stato controllato da esperti di sicurezza per eventuali problemi di sicurezza.\n\nPer chi non ha un server, RetroShare è probabilmente il mezzo più semplice per creare il tuo social network criptato.",
    "slug": "retroshare",
    "url": "http://retroshare.cc",
    "wikipedia_url": "https://it.wikipedia.org/wiki/RetroShare"
  },
  {
    "description": "Ring is a secure and distributed voice, video and chat communication platform that requires no centralized server and leaves the power of privacy in the hands of the user.",
    "slug": "ring",
    "url": "https://ring.cx/",
    "wikipedia_url": "https://en.wikipedia.org/wiki/Ring_(software)"
  },
  {
    "description": "Strumenti di comunicazione sicuri per coloro che desiderano una societè più libera.",
    "notes": "I servizi di Riseup possono essere usati anche tramite i loro indirizzi nascosti su Tor. Una lista è [disponibile qui](https://www.riseup.net/en/tor#riseups-tor-hidden-services).",
    "slug": "riseup",
    "url": "https://riseup.net/en",
    "wikipedia_url": ""
  },
  {
    "description": "The personal, minimalist, super-fast, database free, bookmarking service.",
    "slug": "shaarli",
    "url": "https://github.com/shaarli/Shaarli/",
    "wikipedia_url": ""
  },
  {
    "description": "A fork of TextSecure with SMS encryption.",
    "slug": "silence",
    "url": "https://silence.im/",
    "wikipedia_url": ""
  },
  {
    "description": "Continuous decentralized file synchronization.",
    "notes": "Syncthing is a self-hosted file sharing platform, so none of your data is ever stored anywhere other than on your computers. There is no central server that might be compromised, legally or illegally. All communication is secured using TLS. The encryption used includes perfect forward secrecy to prevent any eavesdropper from gaining access to your data. Every node is identified by a strong cryptographic certificate. Only nodes you have explicitly allowed can connect to your cluster.",
    "slug": "syncthing",
    "url": "https://syncthing.net/",
    "wikipedia_url": "https://en.wikipedia.org/wiki/Syncthing"
  },
  {
    "description": "Sistema di cloud storage libero e open source.",
    "slug": "tahoe-lafs",
    "url": "https://tahoe-lafs.org/trac/tahoe-lafs",
    "wikipedia_url": "https://en.wikipedia.org/wiki/Tahoe-LAFS"
  },
  {
    "description": "Distribuzione GNU/Linux live CD/USB progettata per tutelare la propria privacy.",
    "slug": "tails",
    "url": "https://tails.boum.org/",
    "wikipedia_url": "https://en.wikipedia.org/wiki/The_Amnesic_Incognito_Live_System"
  },
  {
    "description": "Software demone libero che usa il tunnelling e la cifratura pre creare una rete privata sicura.",
    "slug": "tinc",
    "url": "http://tinc-vpn.org/",
    "wikipedia_url": "https://en.wikipedia.org/wiki/Tinc_%28protocol%29"
  },
  {
    "description": "Tor (precedentemente TOR, acronimo di The Onion Router)[citazione non necessaria] è un software libero per una navigazione anonima online. Tor indirizza il traffico attraverso una rete libera, mondiale, volontaria, formata da più di quattromila relay per nascondere la posizione dell’utente da chiunque conduca una sorveglianza della rete o un’analisi del traffico. L’uso di Tor rende più difficoltoso il tracciamento dell’attivitè online, incluse “le visite ai siti, i post online, i messaggi istantanei e altre forme di comunicazione”, ed è destinato a proteggere la privacy degli utenti, così come la loro libertè e la capacitè di condurre attivitè riservate evitando di essere monitorati.",
    "slug": "tor",
    "url": "https://www.torproject.org/",
    "wikipedia_url": "https://it.wikipedia.org/wiki/Tor_%28software%29"
  },
  {
    "description": "Navigazione anonima e criptata grazie alla rete Tor.",
    "notes": "Usare TBB per accedere a siti che contengono la tua vera identitè è controproducente e può far saltare la protezione contro le frodi del sito. Accertati di una connessione HTTPS prima di accedere ad un sito con Tor.\n\nAccedere ai siti in HTTP può portare alla rilevazione della tua identitè da un nodo di uscita di Tor.",
    "slug": "tor-browser",
    "url": "https://www.torproject.org/projects/torbrowser.html.en",
    "wikipedia_url": "https://en.wikipedia.org/wiki/Tor_Browser"
  },
  {
    "description": "Componente aggiuntivo di Thunderbird/Icedove per l’utilizzo di Tor.",
    "notes": " TorBirdy è in beta e dovrebbe essere considerato sperimentale. Prima di usarlo assicurati di dare un’occhiata ai problemi conosciuti consultando le sezioni “Before using TorBirdy” e “Known TorBirdy Issues” sul sito ufficiale.",
    "slug": "torbirdy",
    "url": "https://trac.torproject.org/projects/tor/wiki/torbirdy",
    "wikipedia_url": ""
  },
  {
    "description": "An efficient blocker for Firefox and Chromium. Fast and lean.",
    "slug": "ublock-origin",
    "url": "https://github.com/gorhill/uBlock",
    "wikipedia_url": "https://en.wikipedia.org/wiki/UBlock#uBlock_Origin"
  },
  {
    "description": "Client-side encrypted image host web server.",
    "notes": "Up1 is a simple host that client-side encrypts images, text, and other data, and stores them, with the server knowing nothing about the contents. It has the ability to view images, text with syntax highlighting, short videos, and arbitrary binaries as downloadables.",
    "slug": "up1",
    "url": "https://github.com/Upload/Up1/blob/master/README.md",
    "wikipedia_url": ""
  },
  {
    "description": "wallabag is a self hostable application for saving web pages. Unlike other services, wallabag is free (as in freedom) and open source.",
    "slug": "wallabag",
    "url": "https://www.wallabag.org/",
    "wikipedia_url": ""
  }
]
